<?xml version="1.0" encoding="UTF-8" standalone="no"?>
<!-- Created with Inkscape (http://www.inkscape.org/) -->

<svg
   id="svg2"
   version="1.1"
   inkscape:version="1.3.2 (091e20e, 2023-11-25)"
   width="400"
   height="600"
   viewBox="0 0 400 600"
   sodipodi:docname="Japanese-Tit-on-a-twig.svg"
   inkscape:export-filename="Japanese-Tit-on-a-twig.png"
   inkscape:export-xdpi="409.60001"
   inkscape:export-ydpi="409.60001"
   xmlns:inkscape="http://www.inkscape.org/namespaces/inkscape"
   xmlns:sodipodi="http://sodipodi.sourceforge.net/DTD/sodipodi-0.dtd"
   xmlns="http://www.w3.org/2000/svg"
   xmlns:svg="http://www.w3.org/2000/svg"
   xmlns:rdf="http://www.w3.org/1999/02/22-rdf-syntax-ns#"
   xmlns:cc="http://creativecommons.org/ns#"
   xmlns:dc="http://purl.org/dc/elements/1.1/">
  <metadata
     id="metadata8">
    <rdf:RDF>
      <cc:Work
         rdf:about="">
        <dc:format>image/svg+xml</dc:format>
        <dc:type
           rdf:resource="http://purl.org/dc/dcmitype/StillImage" />
        <dc:title />
      </cc:Work>
    </rdf:RDF>
  </metadata>
  <defs
     id="defs6" />
  <sodipodi:namedview
     pagecolor="#ffffff"
     bordercolor="#666666"
     borderopacity="1"
     objecttolerance="10"
     gridtolerance="10"
     guidetolerance="10"
     inkscape:pageopacity="0"
     inkscape:pageshadow="2"
     inkscape:window-width="1366"
     inkscape:window-height="714"
     id="namedview4"
     showgrid="false"
     borderlayer="false"
     showborder="true"
     inkscape:showpageshadow="false"
     inkscape:zoom="1.0717735"
     inkscape:cx="125.95945"
     inkscape:cy="187.07312"
     inkscape:window-x="0"
     inkscape:window-y="0"
     inkscape:window-maximized="1"
     inkscape:current-layer="g4297"
     inkscape:pagecheckerboard="0"
     inkscape:deskcolor="#d1d1d1" />
  <g
     id="g4263"
     transform="matrix(1.7418466,0,0,1.7418466,11.705739,272.79362)">
    <g
       id="g4297"
       transform="translate(-7.8286823,2.6095608)">
      <g
         id="g4362">
        <g
           id="g4330">
          <g
             transform="matrix(2.2853872,0,0,2.2853872,-153.03872,-266.65779)"
             id="g4232">
            <path
               inkscape:connector-curvature="0"
               id="path4138"
               d="m 123.30672,61.612211 6.38234,0.76588 4.85057,2.808228 3.31882,3.318814 4.33999,7.40351 1.02117,9.956443 0,1.53176 3.31881,4.850575 2.29764,5.616456 1.53176,9.445853 -2.29764,10.97762 -4.85057,8.93527 -5.61646,5.87175 -3.5741,1.78705 -2.55294,0.76588 6.12704,2.29764 4.59529,1.53176 1.78705,3.06353 0.51059,3.31881 -1.27647,2.80823 -1.02117,0.51058 1.27646,-2.29764 -0.51058,-2.55293 -1.53177,-2.29764 -0.51058,4.59528 0,3.06352 0,2.55294 -2.29764,1.53176 1.27646,-3.06353 -0.25529,-4.59528 -1.27647,1.78706 0.51059,-3.06352 -1.78705,-3.31882 -1.78706,-2.29764 -0.76588,1.27647 -2.04234,0 0.51058,-1.78706 -6.12704,-1.78705 -1.53176,1.53176 2.55293,3.57411 -0.51058,0.51059 -2.04235,-2.04235 1.78705,6.38233 0,2.04235 -2.04234,3.31882 0.76588,-3.82941 -1.27647,-2.80822 -0.76588,-2.29764 -2.04235,2.80822 -0.76588,0 0.51059,-4.59528 -1.78706,-3.06352 -2.04234,0 -7.40351,0 -13.530554,0.76588 -3.829401,0.51059 4.084695,-6.63763 c 0,0 -1.787054,-5.10587 -2.297641,-6.12704 -0.510587,-1.02118 0.255293,-10.97762 0.255293,-10.97762 l 3.318815,-7.40351 -0.255294,-7.6588 3.829397,-7.403511 6.63763,-7.40351 3.57411,-0.510586 1.78706,-7.148216 0,-3.318815 -1.02118,-3.318814 0,-1.531761 3.57411,-4.850575 1.78705,-1.276467 2.55294,-1.53176 z"
               style="fill:none;fill-rule:evenodd;stroke:#000000;stroke-width:0;stroke-linecap:butt;stroke-linejoin:miter;stroke-miterlimit:4;stroke-dasharray:none;stroke-opacity:1" />
            <path
               sodipodi:nodetypes="cccsccccccccccccccccc"
               inkscape:connector-curvature="0"
               id="path4140"
               d="m 143.18129,85.824692 -2.76991,4.125089 -1.53176,7.403509 c 0,0 -2.55293,5.61646 -2.29764,6.63763 0.25529,1.02117 1.02117,3.31881 1.02117,3.31881 l -1.27646,1.53176 1.78705,1.53176 2.29764,3.31882 0,5.87175 -0.76588,4.85057 -2.29764,4.59528 -4.33999,2.55294 -2.86571,3.98682 -2.45921,2.24225 11.96255,-5.97378 5.61646,-8.16939 4.33998,-11.23291 0.51059,-7.40351 -2.29764,-9.190561 -1.82537,-5.656849 z"
               style="fill:#ddddda;fill-opacity:1;fill-rule:evenodd;stroke:#000000;stroke-width:0;stroke-linecap:butt;stroke-linejoin:miter;stroke-miterlimit:4;stroke-dasharray:none;stroke-opacity:1" />
            <path
               sodipodi:nodetypes="ccccccccccccc"
               inkscape:connector-curvature="0"
               id="path4142"
               d="m 124.18119,74.471375 8.04671,-4.675681 0.77997,-0.01409 1.02118,-0.255293 0.51058,-1.53176 1.76789,-0.236135 1.82746,1.90616 2.53169,3.180549 2.04443,6.303624 -2.55501,2.88694 -6.89292,-1.787054 -8.4769,-3.937989 z"
               style="fill:#eeeeee;fill-opacity:1;fill-rule:evenodd;stroke:#000000;stroke-width:0;stroke-linecap:butt;stroke-linejoin:miter;stroke-miterlimit:4;stroke-dasharray:none;stroke-opacity:1" />
            <path
               sodipodi:nodetypes="cccccscc"
               inkscape:connector-curvature="0"
               id="path4144"
               d="m 114.62675,75.142762 1.78705,2.042348 0.51059,0 -1.27647,4.850575 -2.04235,3.063521 c 0,0 -0.51058,1.276467 -0.51058,0.255293 0,-1.021174 1.35686,-10.416423 1.35686,-10.416423 0.0851,-1.184764 0.1749,0.204686 0.1749,0.204686 z"
               style="fill:#a6bbcf;fill-opacity:1;fill-rule:evenodd;stroke:#000000;stroke-width:0;stroke-linecap:butt;stroke-linejoin:miter;stroke-miterlimit:4;stroke-dasharray:none;stroke-opacity:1" />
            <path
               sodipodi:nodetypes="cccccccccccccccccccccccccccccccccccccccccccccc"
               inkscape:connector-curvature="0"
               id="path4146"
               d="m 78.37508,142.28493 1.021174,4.33999 10.722323,-2.80823 10.211733,-1.27646 19.91289,0 1.02117,-0.2553 -0.25529,4.33999 -11.0351,3.63159 -17.359944,5.20373 -11.175435,3.16347 1.531761,4.33999 6.493132,-1.66588 23.023026,-6.89499 11.91801,-2.60833 0.94454,-0.31901 2.55293,-2.80822 22.72112,1.27646 6.38233,-8.16939 -15.45794,-2.35719 3.20386,5.9313 0,0.76588 -3.20179,-4.55234 -1.89119,0.5189 0.19989,0.14453 -0.41272,-0.15073 0.9083,0.21698 -1.98487,5.60976 0,-2.80823 -1.70626,-5.67601 -2.63372,1.33602 -0.88084,-0.62969 0.27445,-2.33803 -8.33305,-0.19367 -0.6276,2.20185 0.97869,2.58918 0.47851,1.57423 0.46811,4.06345 0,2.43591 0.24029,-0.18074 -1.61254,-4.8335 -1.92532,-2.58916 -1.82538,4.02721 -0.11702,-6.42065 -1.35518,-2.4763 c -15.45453,0.83802 -28.626861,2.79757 -41.41709,4.30167 z"
               style="fill:#907557;fill-opacity:1;fill-rule:evenodd;stroke:#000000;stroke-width:0;stroke-linecap:butt;stroke-linejoin:miter;stroke-miterlimit:4;stroke-dasharray:none;stroke-opacity:1" />
            <path
               sodipodi:nodetypes="ccccccccccccccc"
               inkscape:connector-curvature="0"
               id="path4148"
               d="m 133.26317,137.94494 -0.51059,2.80823 1.23607,0.13827 1.98487,-0.48936 2.27641,4.8485 -0.13619,3.67198 1.80621,-5.11002 c 1.15697,4.43117 0.19572,9.22017 1.29563,5.51858 l 0.82543,-6.6547 c 1.90476,1.87569 1.38246,4.44882 0.82543,5.91421 l 2.14022,-2.73159 -2.55293,-5.61646 -1.27647,-1.02117 -6.63763,-2.04235 z"
               style="fill:#807b7f;fill-opacity:1;fill-rule:evenodd;stroke:#000000;stroke-width:0;stroke-linecap:butt;stroke-linejoin:miter;stroke-miterlimit:4;stroke-dasharray:none;stroke-opacity:1" />
            <path
               sodipodi:nodetypes="ccccccccccccc"
               inkscape:connector-curvature="0"
               id="path4150"
               d="m 112.83969,133.34966 6.38234,1.02118 6.12704,3.06352 -0.51059,2.04234 1.53176,5.87175 0.2553,5.36116 c -1.19137,-2.55293 -0.9066,-5.10587 -3.57411,-7.6588 l -1.78706,4.0847 -0.51058,-6.89293 -1.27647,-2.29764 -2.55293,-1.53176 -5.36117,-1.53176 z"
               style="fill:#7b7b84;fill-opacity:1;fill-rule:evenodd;stroke:#000000;stroke-width:0;stroke-linecap:butt;stroke-linejoin:miter;stroke-miterlimit:4;stroke-dasharray:none;stroke-opacity:1" />
            <path
               sodipodi:nodetypes="cccccc"
               inkscape:connector-curvature="0"
               id="path4152"
               d="m 96.500913,142.79552 4.722267,-0.44107 8.80828,0.18578 -4.59528,9.19056 -13.275255,3.8294 z"
               style="fill:#1a1817;fill-opacity:1;fill-rule:evenodd;stroke:#000000;stroke-width:0;stroke-linecap:butt;stroke-linejoin:miter;stroke-miterlimit:4;stroke-dasharray:none;stroke-opacity:1" />
            <path
               inkscape:connector-curvature="0"
               id="path4154"
               d="m 89.097404,161.43194 -5.361162,11.4882 -1.787054,8.67998 2.042347,0.25529 1.021174,0.76588 2.042347,0 2.808228,0 0.510587,0.51059 2.808227,-0.76588 1.787054,-1.02117 3.063521,-11.7435 5.105867,-12.50938 z"
               style="fill:#272727;fill-opacity:1;fill-rule:evenodd;stroke:#000000;stroke-width:0;stroke-linecap:butt;stroke-linejoin:miter;stroke-miterlimit:4;stroke-dasharray:none;stroke-opacity:1" />
            <path
               sodipodi:nodetypes="ccccccccccc"
               inkscape:connector-curvature="0"
               id="path4156"
               d="m 115.91353,88.077064 -7.60749,1.087678 -1.3381,3.84856 c 0.58414,2.648123 -1.11768,3.924674 -2.55293,5.361162 l -5.635615,4.986766 c 0.0072,-1.31077 -0.573483,-1.28825 0,-3.731536 0.971559,-3.036314 2.513305,-5.12232 4.103855,-7.126979 l 5.87175,-5.616455 1.02117,-0.765881 4.14425,-1.572154 z"
               style="fill:#535f68;fill-opacity:1;fill-rule:evenodd;stroke:#000000;stroke-width:0;stroke-linecap:butt;stroke-linejoin:miter;stroke-miterlimit:4;stroke-dasharray:none;stroke-opacity:1" />
            <path
               sodipodi:nodetypes="cccccccccccscccccccccccccccccccccc"
               inkscape:connector-curvature="0"
               id="path4158"
               d="m 108.24441,88.928607 5.10587,-1.787054 5.87175,2.552934 4.33999,4.595282 2.04234,3.063521 4.59528,5.61646 0.2553,5.87174 -4.59528,5.61646 -0.2553,2.55293 -2.55293,0.2553 1.27647,3.31881 c 0,0 -1.78706,-2.04235 -1.78706,-1.02117 0,1.02117 -0.51059,2.80823 -0.51059,2.80823 l -1.02117,-0.2553 -1.02117,1.02118 -0.2553,0 0.51059,2.29764 -3.06352,-1.53176 -2.04235,3.8294 -1.02117,-0.2553 -1.53176,2.04235 1.02117,2.55294 -2.80823,-0.51059 1.62964,6.97371 -9.24805,0.74465 -5.931295,0.76795 -0.491429,-3.63574 0.765881,-3.8294 -2.552935,-6.63763 0.765881,-9.70115 3.063521,-8.93527 0,-4.08469 7.403506,-7.403511 z"
               style="fill:#c6c8bd;fill-opacity:1;fill-rule:evenodd;stroke:#000000;stroke-width:0;stroke-linecap:butt;stroke-linejoin:miter;stroke-miterlimit:4;stroke-dasharray:none;stroke-opacity:1" />
            <path
               inkscape:connector-curvature="0"
               id="path4164"
               d="m 117.17968,78.206283 5.10587,-1.276467 2.55293,-0.76588 -3.8294,-0.255293 -3.57411,1.276467 -1.02117,1.021173 z"
               style="fill:#635d5a;fill-opacity:1;fill-rule:evenodd;stroke:#000000;stroke-width:0;stroke-linecap:butt;stroke-linejoin:miter;stroke-miterlimit:4;stroke-dasharray:none;stroke-opacity:1" />
            <path
               sodipodi:nodetypes="cccccccccccc"
               inkscape:connector-curvature="0"
               id="path4168"
               d="m 114.11616,70.036894 7.40351,-2.552934 2.29764,-0.510587 4.59528,-1.021174 2.18468,5.048303 3.15041,-1.54794 -1.13328,-4.16156 -2.55707,-0.983521 -4.70824,0.878838 -4.0847,1.021174 -3.5741,1.53176 z"
               style="fill:#353e48;fill-opacity:1;fill-rule:evenodd;stroke:#000000;stroke-width:0;stroke-linecap:butt;stroke-linejoin:miter;stroke-miterlimit:4;stroke-dasharray:none;stroke-opacity:1" />
            <path
               sodipodi:nodetypes="cccccccccccscccccc"
               inkscape:connector-curvature="0"
               id="path4170"
               d="m 116.63653,78.182724 8.41545,-2.018788 8.72177,3.829401 6.59997,1.858222 2.27575,-2.702814 0.82543,7.226928 -2.86571,4.595281 -1.21898,4.850575 -2.55294,6.382331 -0.76588,1.27647 -2.04234,1.78706 c 0,0 -5.61646,-3.57411 -6.12705,-4.59529 -0.51058,-1.021169 -7.14821,-9.445852 -7.14821,-9.445852 l -5.61646,-3.063521 -1.27646,-1.787054 0,-2.042348 1.53176,-2.552934 z"
               style="fill:#212528;fill-opacity:1;fill-rule:evenodd;stroke:#000000;stroke-width:0;stroke-linecap:butt;stroke-linejoin:miter;stroke-miterlimit:4;stroke-dasharray:none;stroke-opacity:1" />
            <path
               sodipodi:nodetypes="ccccccccccccc"
               inkscape:connector-curvature="0"
               id="path4172"
               d="m 113.12686,70.7283 c 1.3759,-7.813043 10.9022,-11.925778 18.13227,-7.937489 l 2.81766,1.923495 3.39016,3.922947 c -0.99003,-0.301752 0.81899,-0.17489 -1.90521,0.302206 l -1.13555,0.25625 -1.35953,0.395226 -1.77314,-4.739351 -1.95017,-0.392553 -5.1192,1.134132 -5.73613,1.832259 -2.29764,1.276467 z"
               style="fill:#233042;fill-opacity:1;fill-rule:evenodd;stroke:#000000;stroke-width:0;stroke-linecap:butt;stroke-linejoin:miter;stroke-miterlimit:4;stroke-dasharray:none;stroke-opacity:1" />
            <path
               inkscape:connector-curvature="0"
               id="path4194"
               d="m 118.52254,71.873847 -0.93243,0.362612 -0.46622,0.466217 -0.31081,0.56982 -0.36261,0.673423 0.72523,0.207207 1.19144,-0.518018 0.46621,-0.828829 z"
               style="fill:#495059;fill-opacity:1;fill-rule:evenodd;stroke:#000000;stroke-width:0;stroke-linecap:butt;stroke-linejoin:miter;stroke-miterlimit:4;stroke-dasharray:none;stroke-opacity:1" />
            <path
               sodipodi:nodetypes="ccsccccccccccccc"
               inkscape:connector-curvature="0"
               id="path4198"
               d="m 118.92725,71.855247 c 0,0 1.03689,0.09016 1.21722,0.180329 0.18033,0.09016 2.31171,0.842339 2.53713,0.932503 0.22541,0.09016 1.29487,0.825709 1.29487,0.825709 l 0.45082,0.405741 c 0,0 -0.40574,0 -0.31557,0.18033 0.0902,0.180329 0.72132,1.938541 0.72132,1.938541 l -3.24593,-0.360659 -0.94468,0.08948 -2.90189,1.066721 -0.0295,-1.893459 0.0302,-1.307388 0.61727,-0.390143 0.32946,-0.675548 -0.1505,-0.871478 z"
               style="fill:#2a2122;fill-opacity:1;fill-rule:evenodd;stroke:#000000;stroke-width:0;stroke-linecap:butt;stroke-linejoin:miter;stroke-miterlimit:4;stroke-dasharray:none;stroke-opacity:1" />
            <path
               sodipodi:nodetypes="ccccccccccccccccccc"
               inkscape:connector-curvature="0"
               id="path4200"
               d="m 116.64364,78.608957 1.11817,-1.515339 -0.0169,-3.183582 -0.38722,0.150969 -0.66851,-0.04667 -0.059,-0.352716 0.25289,-0.362099 c 0.76079,-0.859209 0.75274,-0.851 1.31102,-1.294844 l 1.20441,-0.07457 2.67693,0.892202 2.05047,1.556149 5.8908,-3.059241 0.69411,-0.529255 c -0.89005,-4.680956 -0.0853,-5.833538 -4.71562,-4.759927 -2.13986,0.03381 -5.59964,1.204899 -7.26064,2.316174 l -4.74988,1.739522 -0.83287,0.594909 c 0.33471,2.080153 0.97174,4.701873 2.37964,5.711125 z"
               style="fill:#090b0b;fill-opacity:1;fill-rule:evenodd;stroke:#000000;stroke-width:0;stroke-linecap:butt;stroke-linejoin:miter;stroke-miterlimit:4;stroke-dasharray:none;stroke-opacity:1" />
            <path
               sodipodi:nodetypes="cccccccccccccccccccccccccccccccccccccccc"
               inkscape:connector-curvature="0"
               id="path4208"
               d="m 130.21299,102.47081 3.97911,2.19538 2.57378,-2.56415 0.9937,5.03394 -1.2349,1.64653 3.8419,4.25353 0.13721,4.52796 -0.82326,6.86053 -1.50932,3.29306 -0.68605,1.09769 -2.88143,2.05816 -1.50932,0.82326 c -1.54248,2.23424 -3.04758,4.4934 -5.214,6.31169 l -1.50932,0 -1.50932,-0.27442 -1.78374,-1.09769 -5.21401,-2.05816 -4.25354,-0.82326 -2.05815,0.96048 5.76285,1.64653 2.607,1.92095 -7.54659,0.13721 -1.92095,-7.40938 3.29306,1.09768 -1.64653,-2.74421 2.607,-2.33258 0.36446,0.58206 2.10534,-3.87512 2.74421,1.64653 -0.27442,-2.19537 1.37211,-1.50932 0.96047,0.96047 0.68606,-3.8419 1.78374,1.50932 -1.64653,-3.15585 2.74421,-0.27442 0.13721,-2.19537 4.80238,-6.31169 -0.54884,-6.3117 z"
               style="fill:#212528;fill-opacity:1;fill-rule:evenodd;stroke:#000000;stroke-width:0;stroke-linecap:butt;stroke-linejoin:miter;stroke-miterlimit:4;stroke-dasharray:none;stroke-opacity:1" />
            <g
               id="g4216">
              <circle
                 style="fill:#090b0b;fill-opacity:0.55825243;fill-rule:nonzero;stroke:#651b1b;stroke-width:0;stroke-miterlimit:4;stroke-dasharray:none;stroke-opacity:1"
                 id="path4206"
                 cx="128.06435"
                 cy="69.304802"
                 r="0.72440439" />
              <path
                 style="fill:#ffffff;fill-opacity:1;fill-rule:evenodd;stroke:#000000;stroke-width:0;stroke-linecap:butt;stroke-linejoin:miter;stroke-miterlimit:4;stroke-dasharray:none;stroke-opacity:1"
                 d="m 128.16387,71.349826 -0.87884,-0.585892 c -1.86601,-3.874534 2.63652,-4.925895 2.63652,-0.292946 l -0.43942,0.732365 z"
                 id="path4210"
                 inkscape:connector-curvature="0"
                 sodipodi:nodetypes="ccccc" />
              <ellipse
                 style="fill:#000000;fill-opacity:1;fill-rule:nonzero;stroke:#651b1b;stroke-width:0;stroke-miterlimit:4;stroke-dasharray:none;stroke-opacity:1"
                 id="path4212"
                 cx="99.84507"
                 cy="109.36868"
                 rx="1.4746728"
                 ry="1.8947805"
                 transform="matrix(0.93905888,-0.34375635,0.31590349,0.94879133,0,0)"
                 inkscape:transform-center-x="-0.13969016"
                 inkscape:transform-center-y="-0.29294534" />
              <ellipse
                 style="fill:#818181;fill-opacity:1;fill-rule:nonzero;stroke:#651b1b;stroke-width:0;stroke-miterlimit:4;stroke-dasharray:none;stroke-opacity:1"
                 id="path4214"
                 cx="127.79768"
                 cy="69.299202"
                 rx="0.51265657"
                 ry="0.58589303" />
            </g>
            <g
               transform="matrix(-0.51255752,0.13704948,0.29669857,1.1096363,159.80107,-20.950571)"
               id="g4222">
              <circle
                 r="0.72440439"
                 cy="69.304802"
                 cx="128.06435"
                 id="circle4224"
                 style="fill:#090b0b;fill-opacity:0.55825243;fill-rule:nonzero;stroke:#651b1b;stroke-width:0;stroke-miterlimit:4;stroke-dasharray:none;stroke-opacity:1" />
              <path
                 sodipodi:nodetypes="ccccc"
                 inkscape:connector-curvature="0"
                 id="path4226"
                 d="m 128.16387,71.349826 -0.87884,-0.585892 c -1.86601,-3.874534 2.63652,-4.925895 2.63652,-0.292946 l -0.43942,0.732365 z"
                 style="fill:#ffffff;fill-opacity:1;fill-rule:evenodd;stroke:#000000;stroke-width:0;stroke-linecap:butt;stroke-linejoin:miter;stroke-miterlimit:4;stroke-dasharray:none;stroke-opacity:1" />
              <ellipse
                 inkscape:transform-center-y="-0.29294534"
                 inkscape:transform-center-x="-0.13969016"
                 transform="matrix(0.93905888,-0.34375635,0.31590349,0.94879133,0,0)"
                 ry="1.8947805"
                 rx="1.4746728"
                 cy="109.36868"
                 cx="99.84507"
                 id="ellipse4228"
                 style="fill:#000000;fill-opacity:1;fill-rule:nonzero;stroke:#651b1b;stroke-width:0;stroke-miterlimit:4;stroke-dasharray:none;stroke-opacity:1" />
              <ellipse
                 ry="0.58589303"
                 rx="0.51265657"
                 cy="69.299202"
                 cx="127.79768"
                 id="ellipse4230"
                 style="fill:#818181;fill-opacity:1;fill-rule:nonzero;stroke:#651b1b;stroke-width:0;stroke-miterlimit:4;stroke-dasharray:none;stroke-opacity:1" />
            </g>
          </g>
        </g>
      </g>
    </g>
  </g>
</svg>
